%YAML 1.1
%TAG !u! tag:unity3d.com,2011:
--- !u!1045 &1
EditorBuildSettings:
  m_ObjectHideFlags: 0
  serializedVersion: 2
  m_Scenes:
  - enabled: 1
    path: Assets/Scenes/Menu.unity
    guid: 9fc0d4010bbf28b4594072e72b8655ab
  - enabled: 1
    path: Assets/Scenes/Game.unity
    guid: 7d721eba6085f7f48b95ade3c2d5c1a3
  - enabled: 1
    path: Assets/Scenes/End.unity
    guid: 8c9c607260664554eb5b59e8968ddb72
  m_configObjects: {}
